{
    "total": 311,
    "per_page": "50",
    "current_page": 1,
    "last_page": 7,
    "next_page_url": "http://localhost:8000/rest/ci/runchecktests?page=2",
    "prev_page_url": null,
    "from": 1,
    "to": 50,
    "data": [
        {
            "test_id": "1",
            "test_name": "MiniXYZ",
            "test_enabled": "0",
            "test_script_name": "test.abc",
            "test_description": "ullam corporis suscipit laboriosam",
            "test_imtbuild_reqd": "0",
            "test_log_action": "test",
            "test_timeout": "180",
            "test_coverage_aware": "1",
            "log_copy_path": "\\N",
            "test_obsolete": "1",
            "test_contact_email": "\\N",
            "test_failure_email": "\\N",
            "test_cov_tas_wrapper": "1"
        },
        {
            "test_id": "2",
            "test_name": "ullam corporis suscipit laboriosam",
            "test_enabled": "1",
            "test_script_name": "test",
            "test_description": "Neque porro quisquam est, qui dolorem ipsum quia dolor sit amet, consectetur, adipisci velit, sed quia non numquam eius modi tempora ",
            "test_imtbuild_reqd": "1",
            "test_log_action": "test",
            "test_timeout": "180",
            "test_coverage_aware": "0",
            "log_copy_path": "/u/abcvios",
            "test_obsolete": "0",
            "test_contact_email": "\\N",
            "test_failure_email": "\\N",
            "test_cov_tas_wrapper": "0"
        },
        {
            "test_id": "3",
            "test_name": "FailingHelloWorld",
            "test_enabled": "0",
            "test_script_name": "abc.xyz",
            "test_description": "magni dolores eos qui ratione voluptatem sequi nesciunt",
            "test_imtbuild_reqd": "1",
            "test_log_action": "test",
            "test_timeout": "180",
            "test_coverage_aware": "0",
            "log_copy_path": "\\N",
            "test_obsolete": "1",
            "test_contact_email": "\\N",
            "test_failure_email": "\\N",
            "test_cov_tas_wrapper": "0"
        },
        {
            "test_id": "4",
            "test_name": "HelloWorld",
            "test_enabled": "0",
            "test_script_name": "test.xyz",
            "test_description": "A UnitTest++ test that will write HelloWorld to the controller shell.",
            "test_imtbuild_reqd": "0",
            "test_log_action": "test",
            "test_timeout": "180",
            "test_coverage_aware": "0",
            "log_copy_path": "\\N",
            "test_obsolete": "1",
            "test_contact_email": "\\N",
            "test_failure_email": "\\N",
            "test_cov_tas_wrapper": "0"
        },
        {
            "test_id": "5",
            "test_name": "XYZ_Functional",
            "test_enabled": "0",
            "test_script_name": "test",
            "test_description": "omnis iste natus error sit voluptatem accusantium",
            "test_imtbuild_reqd": "1",
            "test_log_action": "test",
            "test_timeout": "180",
            "test_coverage_aware": "0",
            "log_copy_path": "\\N",
            "test_obsolete": "1",
            "test_contact_email": "\\N",
            "test_failure_email": "\\N",
            "test_cov_tas_wrapper": "0"
        },
        {
            "test_id": "6",
            "test_name": "RAIDMap_Functional",
            "test_enabled": "1",
            "test_script_name": "omnis iste natus error sit voluptatem accusantium",
            "test_description": "Sed ut perspiciatis unde omnis iste natus error sit voluptatem accusantium doloremque laudantium, totam rem aperiam, eaque ipsa quae ab illo inventore",
            "test_imtbuild_reqd": "1",
            "test_log_action": "similique sunt in culpa qui officia deserunt mollitia animi",
            "test_timeout": "180",
            "test_coverage_aware": "1",
            "log_copy_path": "/u/abc/vio_unit_test",
            "test_obsolete": "0",
            "test_contact_email": "\\N",
            "test_failure_email": "\\N",
            "test_cov_tas_wrapper": "0"
        },
        {
            "test_id": "7",
            "test_name": "fcStress",
            "test_enabled": "1",
            "test_script_name": "dignissimos ducimus qui blanditiis praesentium",
            "test_description": "similique sunt in culpa qui officia deserunt mollitia animi",
            "test_imtbuild_reqd": "0",
            "test_log_action": "similique sunt in culpa qui officia deserunt mollitia animi",
            "test_timeout": "180",
            "test_coverage_aware": "1",
            "log_copy_path": "/u/abc",
            "test_obsolete": "0",
            "test_contact_email": "\\N",
            "test_failure_email": "\\N",
            "test_cov_tas_wrapper": "1"
        },
        {
            "test_id": "8",
            "test_name": "sasStress",
            "test_enabled": "1",
            "test_script_name": "Sed ut perspiciatis unde omnis iste natus",
            "test_description": "Nemo enim ipsam voluptatem quia voluptas sit aspernatur aut odit aut fugit, sed quia consequuntur magni dolores eos qui ratione voluptatem sequi nesciunt. Neque porro quisquam est, qui dolorem ipsum quia dolor sit amet, consectetur, adipisci velit, sed quia non numquam eius modi tempora incidunt ut labore et dolore magnam aliquam quaerat voluptatem.",
            "test_imtbuild_reqd": "0",
            "test_log_action": "omnis iste natus",
            "test_timeout": "180",
            "test_coverage_aware": "1",
            "log_copy_path": "/u/abc",
            "test_obsolete": "0",
            "test_contact_email": "\\N",
            "test_failure_email": "\\N",
            "test_cov_tas_wrapper": "1"
        }
    ]
}