{
    "total": 96752,
    "per_page": "50",
    "current_page": 1,
    "last_page": 1936,
    "next_page_url": "http://localhost:8000/rest/cq/tasks?page=2",
    "prev_page_url": null,
    "from": 1,
    "to": 50,
    "data": [
        {
            "dbid": "33558534.0",
            "id": "LSIP200004102",
            "Headline": "4102 test checkout",
            "State": "Active",
            "Active_Date": "2010-09-01 10:54:50.000",
            "am_statetype": "Active",
            "Assigned_Date": "2010-09-01 10:54:44.000",
            "AssociatedArchDocs": null,
            "AssociatedDefects": null,
            "AssociatedImplRequests": null,
            "Baseline_Complete_Date": null,
            "Baseline_Est_Effort": null,
            "Code_Review_Date": null,
            "Code_Reviewer": null,
            "CR_ID": "4102",
            "CoreComponent": null,
            "Current_Complete_Date": null,
            "Current_Est_Effort": null,
            "Delivered_To": null,
            "Description": "test checkout",
            "Entered_Date": "2010-09-01 10:54:26.000",
            "Enterer": "xyz",
            "External_DB_ID": null,
            "External_DB_URL1": null,
            "ExtTaskCreated": null,
            "Inital_Delivery_Date": null,
            "LOC": null,
            "LOC_Total": null,
            "Modify_Time": "2010-09-01 10:54:50.000",
            "Owner": "xyz",
            "ParentID": null,
            "Ready_For_Delivery_Date": null,
            "record_type": "Task",
            "Resolver": "xyz",
            "Resolver_Comments": null,
            "Review_Effort": null,
            "Review_Notification_List": null,
            "Reviewer_Comments": null,
            "ReviewReqID": null,
            "ReviewReqURL": null,
            "Secondary_Reviewer": null,
            "Self_Review": null,
            "Submitter": "xyz",
            "ucm_project": "MR_CHECK",
            "ucm_stream": null,
            "ucm_view": null,
            "ratl_mastership": "WIC",
            "Archived": "0",
            "lastupdate": "2013-09-14 01:23:02.000",
            "Query_Type": "Task",
            "Update_Type": "UPDATE",
            "icon": "glyphicon glyphicon-cog",
            "obj_type": "task"
        },
        {
            "dbid": "33558535.0",
            "id": "LSIP200004103",
            "Headline": "4103 test chkout",
            "State": "Active",
            "Active_Date": "2010-09-01 11:07:58.000",
            "am_statetype": "Active",
            "Assigned_Date": "2010-09-01 11:07:53.000",
            "AssociatedArchDocs": null,
            "AssociatedDefects": null,
            "AssociatedImplRequests": null,
            "Baseline_Complete_Date": null,
            "Baseline_Est_Effort": null,
            "Code_Review_Date": null,
            "Code_Reviewer": null,
            "CR_ID": "4103",
            "CoreComponent": null,
            "Current_Complete_Date": null,
            "Current_Est_Effort": null,
            "Delivered_To": null,
            "Description": "test chkout",
            "Entered_Date": "2010-09-01 11:07:39.000",
            "Enterer": "xyz",
            "External_DB_ID": null,
            "External_DB_URL1": null,
            "ExtTaskCreated": null,
            "Inital_Delivery_Date": null,
            "LOC": null,
            "LOC_Total": null,
            "Modify_Time": "2010-09-01 11:08:00.000",
            "Owner": "xyz",
            "ParentID": null,
            "Ready_For_Delivery_Date": null,
            "record_type": "Task",
            "Resolver": "xyz",
            "Resolver_Comments": null,
            "Review_Effort": null,
            "Review_Notification_List": null,
            "Reviewer_Comments": null,
            "ReviewReqID": null,
            "ReviewReqURL": null,
            "Secondary_Reviewer": null,
            "Self_Review": null,
            "Submitter": "xyz",
            "ucm_project": "MR_CHECK",
            "ucm_stream": "xyz_MR_CHECK",
            "ucm_view": "xyz_MR_CHECK",
            "ratl_mastership": "WIC",
            "Archived": "0",
            "lastupdate": "2013-09-14 01:23:02.000",
            "Query_Type": "Task",
            "Update_Type": "UPDATE",
            "icon": "glyphicon glyphicon-cog",
            "obj_type": "task"
        },
        {
            "dbid": "33565605.0",
            "id": "LSIP200011173",
            "Headline": "nobis est eligendi optio cumque nihil",
            "State": "Delivered",
            "Active_Date": "2009-03-31 12:36:02.000",
            "am_statetype": "Complete",
            "Assigned_Date": "2009-03-31 11:07:43.000",
            "AssociatedArchDocs": null,
            "AssociatedDefects": null,
            "AssociatedImplRequests": "LSIP200011172",
            "Baseline_Complete_Date": null,
            "Baseline_Est_Effort": null,
            "Code_Review_Date": null,
            "Code_Reviewer": null,
            "CR_ID": "11173",
            "CoreComponent": null,
            "Current_Complete_Date": null,
            "Current_Est_Effort": null,
            "Delivered_To": null,
            "Description": "Change sorting method.",
            "Entered_Date": "2009-03-31 11:07:21.000",
            "Enterer": "abc",
            "External_DB_ID": null,
            "External_DB_URL1": null,
            "ExtTaskCreated": null,
            "Inital_Delivery_Date": null,
            "LOC": null,
            "LOC_Total": null,
            "Modify_Time": "2009-03-31 13:59:52.000",
            "Owner": "abc",
            "ParentID": null,
            "Ready_For_Delivery_Date": "2009-03-31 12:58:20.000",
            "record_type": "Task",
            "Resolver": "abc",
            "Resolver_Comments": null,
            "Review_Effort": null,
            "Review_Notification_List": null,
            "Reviewer_Comments": null,
            "ReviewReqID": null,
            "ReviewReqURL": null,
            "Secondary_Reviewer": null,
            "Self_Review": null,
            "Submitter": "abc",
            "ucm_project": "Test_Lib",
            "ucm_stream": "Work_test",
            "ucm_view": "Dev_test_xyz",
            "ratl_mastership": "WIC",
            "Archived": "0",
            "lastupdate": "2013-09-14 01:23:02.000",
            "Query_Type": "Task",
            "Update_Type": "UPDATE",
            "icon": "glyphicon glyphicon-cog",
            "obj_type": "task"
        },
        {
            "dbid": "33565611.0",
            "id": "LSIP200011179",
            "Headline": "dignissimos ducimus qui blanditiis praesentium voluptatum deleniti",
            "State": "Delivered",
            "Active_Date": "2009-03-31 13:09:21.000",
            "am_statetype": "Complete",
            "Assigned_Date": "2009-03-31 13:08:31.000",
            "AssociatedArchDocs": null,
            "AssociatedDefects": "LSIP200011178",
            "AssociatedImplRequests": null,
            "Baseline_Complete_Date": null,
            "Baseline_Est_Effort": null,
            "Code_Review_Date": null,
            "Code_Reviewer": null,
            "CR_ID": "11179",
            "CoreComponent": null,
            "Current_Complete_Date": null,
            "Current_Est_Effort": null,
            "Delivered_To": null,
            "Description": "Update chart topics.",
            "Entered_Date": "2009-03-31 13:08:16.000",
            "Enterer": "abc",
            "External_DB_ID": null,
            "External_DB_URL1": null,
            "ExtTaskCreated": null,
            "Inital_Delivery_Date": null,
            "LOC": null,
            "LOC_Total": null,
            "Modify_Time": "2009-03-31 13:59:57.000",
            "Owner": "abc",
            "ParentID": null,
            "Ready_For_Delivery_Date": "2009-03-31 13:31:10.000",
            "record_type": "Task",
            "Resolver": "abc",
            "Resolver_Comments": null,
            "Review_Effort": null,
            "Review_Notification_List": null,
            "Reviewer_Comments": null,
            "ReviewReqID": null,
            "ReviewReqURL": null,
            "Secondary_Reviewer": null,
            "Self_Review": null,
            "Submitter": "abc",
            "ucm_project": "TLS_test_Lib",
            "ucm_stream": "Work_test",
            "ucm_view": "Dev_test_abc",
            "ratl_mastership": "WIC",
            "Archived": "0",
            "lastupdate": "2013-09-14 01:23:02.000",
            "Query_Type": "Task",
            "Update_Type": "UPDATE",
            "icon": "glyphicon glyphicon-cog",
            "obj_type": "task"
        }
    ]
}